module gitlab.com/JorjiCostava/encode-vampire-abbey

go 1.14

require (
	github.com/AppsFlyer/go-sundheit v0.2.0
	github.com/Microsoft/go-winio v0.4.14
	github.com/btcsuite/btcutil v1.0.2
	github.com/decred/dcrd/dcrec/secp256k1/v3 v3.0.0-20200627015759-01fd2de07837
	github.com/dgrijalva/jwt-go v3.2.0+incompatible
	github.com/golang/protobuf v1.4.2
	github.com/golang/snappy v0.0.2-0.20200707131729-196ae77b8a26 // indirect
	github.com/gorilla/handlers v1.4.2
	github.com/gorilla/mux v1.7.4
	github.com/gorilla/rpc v1.2.0
	github.com/gorilla/websocket v1.4.2
	github.com/hashicorp/go-hclog v0.14.1
	github.com/hashicorp/go-plugin v1.3.0
	github.com/huin/goupnp v1.0.0
	github.com/jackpal/gateway v1.0.6
	github.com/jackpal/go-nat-pmp v1.0.2
	github.com/kr/pretty v0.2.0 // indirect
	github.com/mattn/go-colorable v0.1.7 // indirect
	github.com/mitchellh/go-homedir v1.1.0
	github.com/mr-tron/base58 v1.2.0
	github.com/nbutton23/zxcvbn-go v0.0.0-20180912185939-ae427f1e4c1d
	github.com/pkg/errors v0.9.1 // indirect
	github.com/prometheus/client_golang v1.7.1
	github.com/rs/cors v1.7.0
	github.com/spf13/pflag v1.0.5
	github.com/spf13/viper v1.7.1
	github.com/stretchr/objx v0.2.0 // indirect
	github.com/stretchr/testify v1.4.0
	github.com/syndtr/goleveldb v1.0.1-0.20200815110645-5c35d600f0ca
	golang.org/x/crypto v0.0.0-20200622213623-75b288015ac9
	golang.org/x/net v0.0.0-20200822124328-c89045814202
	golang.org/x/sys v0.0.0-20200824131525-c12d262b63d8 // indirect
	google.golang.org/genproto v0.0.0-20200218151345-dad8c97a84f5 // indirect
	google.golang.org/grpc v1.29.1
	gotest.tools v2.2.0+incompatible
)
